<?xml version="1.0" encoding="utf-8"?>
<!-- Generator: Adobe Illustrator 15.0.0, SVG Export Plug-In . SVG Version: 6.00 Build 0)  -->
<!DOCTYPE svg PUBLIC "-//W3C//DTD SVG 1.1//EN" "http://www.w3.org/Graphics/SVG/1.1/DTD/svg11.dtd">
<svg version="1.1" id="Layer_1" xmlns="http://www.w3.org/2000/svg" xmlns:xlink="http://www.w3.org/1999/xlink" x="0px" y="0px"
	 width="7.994px" height="14.173px" viewBox="0 0 7.994 14.173" enable-background="new 0 0 7.994 14.173" xml:space="preserve">
<g>
	<path fill="#010101" d="M0.271,13.91c0.176,0.176,0.387,0.264,0.62,0.264c0.243,0,0.448-0.088,0.621-0.264l6.21-6.199
		c0.17-0.174,0.264-0.384,0.264-0.624c0-0.238-0.094-0.447-0.264-0.624l-6.21-6.198C1.34,0.087,1.135,0,0.892,0
		c-0.233,0-0.444,0.088-0.62,0.265C0.096,0.438,0.008,0.647,0.008,0.887v12.4C0.008,13.526,0.096,13.737,0.271,13.91L0.271,13.91z"
		/>
</g>
</svg>
