<?xml version="1.0" encoding="utf-8"?>
<!-- Generator: Adobe Illustrator 15.0.0, SVG Export Plug-In . SVG Version: 6.00 Build 0)  -->
<!DOCTYPE svg PUBLIC "-//W3C//DTD SVG 1.1//EN" "http://www.w3.org/Graphics/SVG/1.1/DTD/svg11.dtd">
<svg version="1.1" id="Layer_1" xmlns="http://www.w3.org/2000/svg" xmlns:xlink="http://www.w3.org/1999/xlink" x="0px" y="0px"
	 width="31.181px" height="31.181px" viewBox="0 0 31.181 31.181" enable-background="new 0 0 31.181 31.181" xml:space="preserve">
<g>
	<path fill="#010101" d="M26.62,4.562c-6.08-6.083-15.979-6.083-22.06,0c-6.08,6.08-6.08,15.977,0,22.059
		c6.081,6.082,15.976,6.082,22.06,0C32.7,20.538,32.7,10.642,26.62,4.562L26.62,4.562z"/>
	<path fill="#FFFFFF" d="M21.739,21.741c-0.469,0.469-1.227,0.469-1.695,0l-4.456-4.453l-4.667,4.664
		c-0.469,0.467-1.226,0.467-1.695,0c-0.469-0.467-0.469-1.229,0-1.697l4.666-4.666l-4.451-4.452c-0.47-0.47-0.47-1.23,0-1.696
		c0.469-0.469,1.227-0.469,1.695,0l4.452,4.452l4.245-4.24c0.465-0.47,1.227-0.47,1.695,0c0.469,0.468,0.469,1.228,0,1.696
		l-4.24,4.24l4.451,4.455C22.208,20.513,22.208,21.272,21.739,21.741L21.739,21.741z"/>
	<path fill="#010101" d="M21.739,21.741"/>
</g>
</svg>
