<?xml version="1.0" encoding="utf-8"?>
<!-- Generator: Adobe Illustrator 15.0.0, SVG Export Plug-In . SVG Version: 6.00 Build 0)  -->
<!DOCTYPE svg PUBLIC "-//W3C//DTD SVG 1.1//EN" "http://www.w3.org/Graphics/SVG/1.1/DTD/svg11.dtd">
<svg version="1.1" id="Layer_1" xmlns="http://www.w3.org/2000/svg" xmlns:xlink="http://www.w3.org/1999/xlink" x="0px" y="0px"
	 width="16.554px" height="12.558px" viewBox="0 0 16.554 12.558" enable-background="new 0 0 16.554 12.558" xml:space="preserve">
<g>
	<path fill="#010101" d="M0.668,11.887c0.445,0.445,0.984,0.671,1.615,0.671H13.7c0.631,0,1.168-0.226,1.609-0.671
		c0.446-0.444,0.671-0.983,0.671-1.612H0C0,10.902,0.223,11.442,0.668,11.887L0.668,11.887z"/>
	<path fill="#010101" d="M4.281,9.13h6.279c0.547,0,1.016-0.194,1.408-0.588s0.588-0.86,0.588-1.408V6.85h0.571
		c0.945,0,1.754-0.333,2.422-1.004c0.669-0.669,1.005-1.476,1.005-2.421s-0.336-1.753-1.005-2.422C14.881,0.334,14.073,0,13.127,0
		H2.854C2.698,0,2.565,0.058,2.452,0.169c-0.113,0.113-0.17,0.247-0.17,0.401v6.563c0,0.549,0.197,1.018,0.59,1.408
		C3.265,8.935,3.734,9.13,4.281,9.13L4.281,9.13z M12.558,1.712h0.571c0.475,0,0.879,0.166,1.213,0.499
		c0.332,0.334,0.498,0.737,0.498,1.214c0,0.476-0.166,0.88-0.498,1.213c-0.334,0.333-0.736,0.499-1.213,0.499h-0.571V1.712z"/>
</g>
</svg>
